Download maps and plans from the 50-State Simulation Project — alarm_50state • alarmdata
…
alarm_50state_plans('WY')
#> An earlier bug incorrectly in redist doubled the number of removed edges.
#> Current counts are correct.
#> This message is displayed once per session.
#> redist 4.0.0 aligned pro-Republican biases as positive numbers, reversing the
#> old Efficiency Gap direction.
#> This message is displayed once per session.
#> A <redist_plans> containing 5000 sampled plans and 1 reference plan
#> Plans have 1 districts from a 1-unit map, and were drawn using an unknown
#> algorithm.
#> Plans matrix: int [1, 1:5001] 1 1 1 1 1 1 1 1 1 1 ...
#> # A tibble: 5,001 × 49
#>    draw  distr…¹ total…² total…³ plan_…⁴ comp_…⁵ comp_…⁶ pop_h…⁷ pop_w…⁸ pop_b…⁹
#>    <fct>   <int>   <dbl>   <dbl>   <dbl>   <dbl>   <dbl>   <dbl>   <dbl>   <dbl>
#>  1 cd_2…       1  576851  441337       0     NaN   0.772   59046  469664    4735
#>  2 1           1  576851  441337       0     NaN   0.772   59046  469664    4735
#>  3 2           1  576851  441337       0     NaN   0.772   59046  469664    4735
#>  4 3           1  576851  441337       0     NaN   0.772   59046  469664    4735
#>  5 4           1  576851  441337       0     NaN   0.772   59046  469664    4735
#>  6 5           1  576851  441337       0     NaN   0.772   59046  469664    4735
#>  7 6           1  576851  441337       0     NaN   0.772   59046  469664    4735
#>  8 7           1  576851  441337       0     NaN   0.772   59046  469664    4735
#>  9 8           1  576851  441337       0     NaN   0.772   59046  469664    4735
#> 10 9           1  576851  441337       0     NaN   0.772   59046  469664    4735
#> # … with 4,991 more rows, 39 more variables: pop_aian <dbl>, pop_asian <dbl>,
#> #   pop_nhpi <dbl>, pop_other <dbl>, pop_two <dbl>, vap_hisp <dbl>,
#> #   vap_white <dbl>, vap_black <dbl>, vap_aian <dbl>, vap_asian <dbl>,
#> #   vap_nhpi <dbl>, vap_other <dbl>, vap_two <dbl>, pre_16_rep_tru <dbl>,
#> #   pre_16_dem_cli <dbl>, uss_18_rep_bar <dbl>, uss_18_dem_tra <dbl>,
#> #   gov_18_rep_gor <dbl>, gov_18_dem_thr <dbl>, sos_18_rep_buc <dbl>,
#> #   sos_18_dem_byr <dbl>, pre_20_rep_tru <dbl>, pre_20_dem_bid <dbl>, …
#> # ℹ Use `print(n = ...)` to see more rows, and `colnames()` to see all variable names
alarm_50state_stats("WY")
#> # A tibble: 5,001 × 49
#>    draw  distr…¹ total…² total…³ plan_…⁴ comp_…⁵ comp_…⁶ pop_h…⁷ pop_w…⁸ pop_b…⁹
#>    <fct>   <int>   <dbl>   <dbl>   <dbl>   <dbl>   <dbl>   <dbl>   <dbl>   <dbl>
#>  1 cd_2…       1  576851  441337       0     NaN   0.772   59046  469664    4735
#>  2 1           1  576851  441337       0     NaN   0.772   59046  469664    4735
#>  3 2           1  576851  441337       0     NaN   0.772   59046  469664    4735
#>  4 3           1  576851  441337       0     NaN   0.772   59046  469664    4735
#>  5 4           1  576851  441337       0     NaN   0.772   59046  469664    4735
#>  6 5           1  576851  441337       0     NaN   0.772   59046  469664    4735
#>  7 6           1  576851  441337       0     NaN   0.772   59046  469664    4735
#>  8 7           1  576851  441337       0     NaN   0.772   59046  469664    4735
#>  9 8           1  576851  441337       0     NaN   0.772   59046  469664    4735
#> 10 9           1  576851  441337       0     NaN   0.772   59046  469664    4735
#> # … with 4,991 more rows, 39 more variables: pop_aian <dbl>, pop_asian <dbl>,
#> #   pop_nhpi <dbl>, pop_other <dbl>, pop_two <dbl>, vap_hisp <dbl>,
#> #   vap_white <dbl>, vap_black <dbl>, vap_aian <dbl>, vap_asian <dbl>,
#> #   vap_nhpi <dbl>, vap_other <dbl>, vap_two <dbl>, pre_16_rep_tru <dbl>,
#> #   pre_16_dem_cli <dbl>, uss_18_rep_bar <dbl>, uss_18_dem_tra <dbl>,
#> #   gov_18_rep_gor <dbl>, gov_18_dem_thr <dbl>, sos_18_rep_buc <dbl>,
#> #   sos_18_dem_byr <dbl>, pre_20_rep_tru <dbl>, pre_20_dem_bid <dbl>, …
#> # ℹ Use `print(n = ...)` to see more rows, and `colnames()` to see all variable names
…
