Add a reference plan to a set of plans — alarm_add_plan • alarmdata
…
#> ! 'redist::partisan_metrics' is deprecated.
#> See help("Deprecated")
#> ℹ Run `dplyr::last_dplyr_warnings()` to see the 3 remaining warnings.
#> Warning: There were 4 warnings in `"draw" %in% names(data)`.
#> The first warning was:
#> ℹ In argument: `egap = redist::partisan_metrics(map, "EffGap", rvote, dvote)`.
#> Caused by warning:
#> ! 'redist::partisan_metrics' is deprecated.
#> See help("Deprecated")
#> ℹ Run `dplyr::last_dplyr_warnings()` to see the 3 remaining warnings.
#> A <redist_plans> containing 5,000 sampled plans and 2 reference plans
#> Plans have 1 district from a 1-unit map, and were drawn using an unknown
#> algorithm.
#> Plans matrix: int [1, 1:5002] 1 1 1 1 1 1 1 1 1 1 ...
#> # A tibble: 5,002 × 50
#>    chain draw    district total_pop total_vap plan_dev comp_edge comp_polsby
#>    <int> <fct>      <int>     <dbl>     <dbl>    <dbl>     <dbl>       <dbl>
#>  1     1 example        1    576851    441337        0       NaN      NA    
#>  2     2 cd_2020        1    576851    441337        0       NaN       0.772
#>  3     2 1              1    576851    441337        0       NaN       0.772
#>  4     2 2              1    576851    441337        0       NaN       0.772
#>  5     2 3              1    576851    441337        0       NaN       0.772
#>  6     2 4              1    576851    441337        0       NaN       0.772
#>  7     2 5              1    576851    441337        0       NaN       0.772
#>  8     2 6              1    576851    441337        0       NaN       0.772
#>  9     2 7              1    576851    441337        0       NaN       0.772
#> 10     2 8              1    576851    441337        0       NaN       0.772
#> # ℹ 4,992 more rows
#> # ℹ 42 more variables: pop_hisp <dbl>, pop_white <dbl>, pop_black <dbl>,
#> #   pop_aian <dbl>, pop_asian <dbl>, pop_nhpi <dbl>, pop_other <dbl>,
#> #   pop_two <dbl>, vap_hisp <dbl>, vap_white <dbl>, vap_black <dbl>,
#> #   vap_aian <dbl>, vap_asian <dbl>, vap_nhpi <dbl>, vap_other <dbl>,
#> #   vap_two <dbl>, pre_16_rep_tru <dbl>, pre_16_dem_cli <dbl>,
#> #   uss_18_rep_bar <dbl>, uss_18_dem_tra <dbl>, gov_18_rep_gor <dbl>, …
…
